module bank

go 1.18

require (
	github.com/fsnotify/fsnotify v1.6.0 // indirect
	github.com/go-sql-driver/mysql v1.7.0 // indirect
	github.com/gorilla/mux v1.8.0 // indirect
	github.com/hashicorp/hcl v1.0.0 // indirect
	github.com/jmoiron/sqlx v1.3.5 // indirect
	github.com/magiconair/properties v1.8.7 // indirect
	github.com/mitchellh/mapstructure v1.5.0 // indirect
	github.com/pelletier/go-toml/v2 v2.0.6 // indirect
	github.com/spf13/afero v1.9.3 // indirect
	github.com/spf13/cast v1.5.0 // indirect
	github.com/spf13/jwalterweatherman v1.1.0 // indirect
	github.com/spf13/pflag v1.0.5 // indirect
	github.com/spf13/viper v1.15.0 // indirect
	github.com/subosito/gotenv v1.4.2 // indirect
	go.uber.org/atomic v1.10.0 // indirect
	go.uber.org/multierr v1.11.0 // indirect
	go.uber.org/zap v1.24.0 // indirect
	golang.org/x/sys v0.3.0 // indirect
	golang.org/x/text v0.5.0 // indirect
	gopkg.in/ini.v1 v1.67.0 // indirect
	gopkg.in/yaml.v3 v3.0.1 // indirect
)
